<?xml version="1.0" encoding="utf-8"?>
<!-- Generator: Adobe Illustrator 16.0.3, SVG Export Plug-In . SVG Version: 6.00 Build 0)  -->
<!DOCTYPE svg PUBLIC "-//W3C//DTD SVG 1.1//EN" "http://www.w3.org/Graphics/SVG/1.1/DTD/svg11.dtd">
<svg version="1.1" id="svg" xmlns="http://www.w3.org/2000/svg" xmlns:xlink="http://www.w3.org/1999/xlink" x="0px" y="0px"
	 width="384.249px" height="120.881px" viewBox="7.314 11.303 384.249 120.881"
	 enable-background="new 7.314 11.303 384.249 120.881" xml:space="preserve">
<g id="svgg">
	<path id="path0" fill="#00A650" d="M32.584,11.476c-1.337,0.166-1.622,0.79-5.246,11.493c-2.155,6.365-2.42,7.123-2.86,8.17
		c-0.227,0.54-0.752,1.946-1.165,3.125c-1.246,3.549-1.517,4.272-2.11,5.645c-0.313,0.723-0.7,1.848-0.861,2.5
		c-0.161,0.652-1.513,4.7-3.004,8.997c-1.492,4.297-2.901,8.446-3.13,9.219c-0.23,0.773-0.862,2.602-1.405,4.063
		c-0.543,1.46-1.314,3.64-1.713,4.843c-1.162,3.507-2.02,5.847-2.634,7.188c-0.704,1.538-1.292,3.615-1.108,3.913
		c0.075,0.121,9.105,0.325,20.066,0.451c10.961,0.127,19.96,0.258,19.998,0.293c0.073,0.067-0.063,0.599-1.327,5.187
		c-0.864,3.138-1.854,6.56-3.164,10.938c-0.438,1.461-1.131,3.781-1.542,5.156c-0.41,1.375-1.448,4.75-2.307,7.5
		c-2.91,9.322-3.115,9.998-3.934,12.969c-0.451,1.633-1.106,3.813-1.455,4.844c-0.859,2.531-1.065,4.221-0.513,4.215
		c0.664-0.009,0.883-0.228,4.359-4.371c1.802-2.148,3.581-4.258,3.953-4.688c1.956-2.258,3.83-4.699,3.831-4.986
		c0-0.18,0.123-0.326,0.274-0.326c0.152,0,0.88-0.809,1.619-1.797c0.739-0.988,1.635-2.105,1.991-2.483
		c1.305-1.384,1.974-2.159,3.172-3.675c0.674-0.854,1.436-1.782,1.694-2.066c0.257-0.284,0.839-0.993,1.291-1.575
		c0.453-0.583,4.355-5.313,8.672-10.511c4.317-5.198,7.849-9.592,7.849-9.766c0-0.172,0.121-0.314,0.268-0.314
		c0.285,0,5.216-5.834,6.724-7.955c0.494-0.695,1.163-1.545,1.485-1.889c0.323-0.344,1.085-1.258,1.693-2.031
		c0.609-0.773,1.659-2.039,2.333-2.813c1.339-1.537,7.182-8.677,8.435-10.309c0.429-0.56,1.114-1.388,1.521-1.839
		C98.039,54.682,99.518,55,76.707,55H57.145l0.21-0.703c0.116-0.387,0.476-1.125,0.8-1.641c0.325-0.515,0.816-1.429,1.092-2.031
		c0.277-0.602,0.686-1.305,0.911-1.562c0.224-0.258,0.997-1.594,1.716-2.969c0.72-1.375,1.779-3.274,2.352-4.219
		c0.98-1.614,1.399-2.375,3.009-5.469c0.358-0.688,0.749-1.32,0.869-1.406s1.512-2.477,3.094-5.312
		c1.583-2.836,3.227-5.719,3.655-6.407c0.429-0.688,1.067-1.813,1.42-2.5c0.648-1.262,1.542-2.9,3.358-6.155
		c1.672-2.994,1.743-2.933-3.743-3.171C70.93,11.24,34.335,11.258,32.584,11.476 M295.314,34.844
		c-0.782,2.086-2.723,9.348-3.129,11.719c-0.162,0.945-0.58,2.763-0.929,4.041c-0.347,1.277-0.632,2.572-0.632,2.877
		c0,0.304-0.332,1.79-0.739,3.302c-0.405,1.512-1.12,4.436-1.587,6.498c-1.582,6.996-2.43,10.619-3.035,12.969
		c-0.332,1.289-0.723,3.047-0.869,3.906c-0.272,1.603-1.099,5.035-2.408,10c-0.407,1.547-0.739,3.093-0.738,3.435
		c0.001,0.343-0.346,2.101-0.771,3.907c-1.854,7.877-1.897,8.141-1.402,8.453c0.756,0.479,47.172,0.389,47.3-0.092
		c0.589-2.215,0.904-3.578,1.318-5.703c0.267-1.375,0.756-3.792,1.085-5.371s0.598-3.303,0.598-3.828V90H315.8
		c-7.467,0-13.634-0.105-13.706-0.234c-0.128-0.231,0.438-3.018,1.663-8.203c0.345-1.461,0.751-3.5,0.9-4.531
		c0.42-2.885,1.751-9.285,3.933-18.906c0.781-3.444,1.768-7.944,3.114-14.219c0.442-2.063,0.804-4.101,0.804-4.531
		s0.194-1.513,0.433-2.406c0.698-2.625,1.015-2.531-8.837-2.648C295.789,34.222,295.544,34.236,295.314,34.844 M163.285,34.679
		l-22.808,0.165l-0.425,0.886c-0.233,0.488-0.624,2.026-0.867,3.418s-0.715,3.736-1.05,5.207c-0.334,1.472-0.968,4.364-1.407,6.426
		s-1.161,5.438-1.603,7.5s-1.149,5.367-1.571,7.344c-0.837,3.923-1.896,8.788-3.13,14.375c-0.436,1.977-1.057,4.508-1.378,5.625
		c-0.321,1.117-0.72,2.805-0.887,3.75c-0.166,0.945-0.597,2.914-0.957,4.375c-1.689,6.85-2.216,9.337-2.285,10.781l-0.073,1.563
		l9.312,0.083l9.312,0.082l0.788-1.78c0.433-0.98,0.903-2.775,1.045-3.989c0.142-1.214,0.406-2.585,0.587-3.046
		c0.181-0.461,0.549-2.288,0.817-4.063c0.268-1.773,0.765-4.279,1.105-5.568c0.339-1.289,0.619-2.844,0.622-3.455
		s0.338-2.229,0.744-3.594l0.738-2.482l16.03-0.081c16.724-0.084,16.869-0.097,16.868-1.441c-0.001-0.657,0.812-4.39,2.376-10.91
		c0.445-1.853,0.729-3.576,0.633-3.828c-0.152-0.395-2.412-0.458-16.29-0.458c-13.584,0-16.14-0.07-16.282-0.441
		c-0.093-0.243,0.192-1.914,0.634-3.715c0.443-1.8,0.805-3.715,0.805-4.254c0-1.626,0.168-1.639,17.7-1.399
		c18.464,0.253,16.687,0.598,17.57-3.412c1.447-6.575,2.24-10.778,2.311-12.248l0.075-1.563l-3.125-0.008
		C187.5,34.519,175.83,34.589,163.285,34.679 M209.475,34.725c-0.488,0.587-1.66,4.848-1.666,6.05
		c-0.002,0.519-0.271,1.793-0.597,2.832c-0.325,1.038-0.688,2.585-0.806,3.437c-0.117,0.853-0.541,2.745-0.942,4.206
		s-1.103,4.344-1.562,6.406c-0.457,2.063-1.113,4.805-1.461,6.094c-0.346,1.289-0.75,3.047-0.896,3.906
		c-0.146,0.86-0.551,2.688-0.898,4.063c-1.931,7.646-2.343,13.969-1.166,17.813c0.944,3.076,1.496,4.531,1.719,4.531
		c0.114,0,0.394,0.416,0.618,0.924c3.004,6.785,15.742,11.728,30.213,11.723l7.5-0.002l3.438-1.038
		c1.891-0.571,3.571-1.166,3.734-1.321c0.163-0.158,0.529-0.285,0.814-0.285c2.732,0,10.271-5.723,13.172-10
		c2.189-3.228,4.936-8.806,4.936-10.024c0-0.379,0.286-1.651,0.636-2.826c0.351-1.175,0.753-3.019,0.894-4.096
		c0.261-1.984,0.996-5.521,2.392-11.491c0.421-1.805,0.769-3.633,0.772-4.062c0.004-0.43,0.354-2.11,0.781-3.734
		c0.426-1.624,0.775-3.275,0.775-3.668c0-0.394,0.3-1.808,0.667-3.142s0.781-3.199,0.92-4.144c0.14-0.945,0.522-2.914,0.851-4.375
		c0.93-4.133,1.399-7.538,1.084-7.854c-0.157-0.157-4.058-0.245-8.854-0.198l-8.573,0.083l-0.849,2.5
		c-0.468,1.375-0.851,2.782-0.853,3.125c-0.002,0.344-0.365,2.172-0.809,4.063c-1.605,6.859-2.311,10.018-2.439,10.938
		c-0.071,0.516-0.427,2.063-0.789,3.438s-0.66,2.868-0.664,3.318c-0.002,0.451-0.291,1.716-0.643,2.813
		c-0.351,1.097-0.759,2.767-0.906,3.713c-0.379,2.423-1.637,7.096-2.777,10.312c-1.781,5.023-6.678,11.25-8.844,11.25
		c-0.195,0-0.862,0.316-1.484,0.703c-1.605,0.999-6.633,0.984-8.905-0.026c-0.838-0.372-1.718-0.677-1.956-0.677
		c-0.457,0-3.201-1.811-4.441-2.932c-2.563-2.313-4.11-6.713-3.494-9.93c0.209-1.091,0.496-2.615,0.641-3.389
		c0.143-0.773,0.482-2.025,0.756-2.782c0.271-0.756,0.584-2.162,0.695-3.125c0.111-0.962,0.463-2.516,0.783-3.452
		c0.32-0.937,0.662-2.484,0.762-3.438s0.452-2.553,0.784-3.554s0.724-2.618,0.87-3.594c0.146-0.975,0.554-2.899,0.906-4.274
		c0.352-1.375,0.992-4.047,1.42-5.938c0.43-1.891,1.031-4.528,1.336-5.86c0.359-1.565,0.449-2.529,0.254-2.725
		C226.779,34.467,209.911,34.198,209.475,34.725 M358.204,34.601c-1.216,0.151-1.554,0.699-1.921,3.117
		c-0.272,1.789-0.971,4.75-2.421,10.251c-0.408,1.547-0.742,3.094-0.743,3.438c-0.001,0.344-0.353,1.72-0.779,3.059
		c-0.428,1.339-0.779,2.815-0.782,3.281c-0.002,0.466-0.29,1.76-0.639,2.876c-0.35,1.115-0.76,2.802-0.913,3.75
		c-0.153,0.947-0.583,2.987-0.957,4.534c-0.373,1.547-1.002,4.148-1.396,5.781c-0.396,1.633-1.095,4.656-1.555,6.719
		s-1.111,4.805-1.447,6.094s-0.729,3.047-0.871,3.906c-0.144,0.859-0.543,2.688-0.89,4.063c-0.693,2.762-1.624,6.871-1.958,8.649
		c-0.396,2.106-1.983,1.967,23.387,2.062c21.732,0.08,23.131,0.053,23.748-0.469c0.672-0.568,1.924-5.674,2.569-10.482
		c0.157-1.164,0.43-2.385,0.605-2.713c0.176-0.33,0.32-1.031,0.32-1.558V90h-13.604c-11.5,0-13.63-0.068-13.775-0.445
		c-0.158-0.414,0.257-2.565,2.242-11.625c0.419-1.912,0.762-3.775,0.762-4.143c0-0.366,0.339-1.967,0.752-3.555
		c1.408-5.413,1.836-7.263,2.221-9.607c0.411-2.504,1.27-6.564,2.511-11.875c0.421-1.805,0.767-3.565,0.767-3.912
		c0-0.347,0.351-2.175,0.778-4.062c0.428-1.888,0.78-4.008,0.781-4.711l0.003-1.28l-4.922-0.204
		C365.011,34.371,359.989,34.379,358.204,34.601"/>
</g>
</svg>
